%YAML 1.1
%TAG !u! tag:unity3d.com,2011:
--- !u!65 &3296861879047098801
BoxCollider:
  m_ObjectHideFlags: 0
  m_CorrespondingSourceObject: {fileID: 0}
  m_PrefabInstance: {fileID: 0}
  m_PrefabAsset: {fileID: 0}
  m_GameObject: {fileID: 4976272931373925893}
  m_Material: {fileID: 0}
  m_IsTrigger: 0
  m_Enabled: 1
  serializedVersion: 2
  m_Size: {x: 1.0601573, y: 1.9269414, z: 0.98979276}
  m_Center: {x: 0, y: 0, z: 0.0029693244}
--- !u!1001 &5472451082700435342
PrefabInstance:
  m_ObjectHideFlags: 0
  serializedVersion: 2
  m_Modification:
    m_TransformParent: {fileID: 0}
    m_Modifications:
    - target: {fileID: 411683760532140849, guid: 1edbf07e7a013744580df96aa5a3d834, type: 3}
      propertyPath: m_LocalPosition.x
      value: -23.510216
      objectReference: {fileID: 0}
    - target: {fileID: 411683760532140849, guid: 1edbf07e7a013744580df96aa5a3d834, type: 3}
      propertyPath: m_LocalPosition.y
      value: 0.28904125
      objectReference: {fileID: 0}
    - target: {fileID: 411683760532140849, guid: 1edbf07e7a013744580df96aa5a3d834, type: 3}
      propertyPath: m_LocalPosition.z
      value: -5.5798697
      objectReference: {fileID: 0}
    - target: {fileID: 411683760532140849, guid: 1edbf07e7a013744580df96aa5a3d834, type: 3}
      propertyPath: m_LocalRotation.x
      value: 0
      objectReference: {fileID: 0}
    - target: {fileID: 411683760532140849, guid: 1edbf07e7a013744580df96aa5a3d834, type: 3}
      propertyPath: m_LocalRotation.y
      value: 0
      objectReference: {fileID: 0}
    - target: {fileID: 411683760532140849, guid: 1edbf07e7a013744580df96aa5a3d834, type: 3}
      propertyPath: m_LocalRotation.z
      value: 0
      objectReference: {fileID: 0}
    - target: {fileID: 411683760532140849, guid: 1edbf07e7a013744580df96aa5a3d834, type: 3}
      propertyPath: m_LocalRotation.w
      value: 1
      objectReference: {fileID: 0}
    - target: {fileID: 411683760532140849, guid: 1edbf07e7a013744580df96aa5a3d834, type: 3}
      propertyPath: m_RootOrder
      value: 0
      objectReference: {fileID: 0}
    - target: {fileID: 411683760532140849, guid: 1edbf07e7a013744580df96aa5a3d834, type: 3}
      propertyPath: m_LocalEulerAnglesHint.x
      value: 0
      objectReference: {fileID: 0}
    - target: {fileID: 411683760532140849, guid: 1edbf07e7a013744580df96aa5a3d834, type: 3}
      propertyPath: m_LocalEulerAnglesHint.y
      value: 0
      objectReference: {fileID: 0}
    - target: {fileID: 411683760532140849, guid: 1edbf07e7a013744580df96aa5a3d834, type: 3}
      propertyPath: m_LocalEulerAnglesHint.z
      value: 0
      objectReference: {fileID: 0}
    - target: {fileID: 411683760532140849, guid: 1edbf07e7a013744580df96aa5a3d834, type: 3}
      propertyPath: m_LocalScale.x
      value: 0.2
      objectReference: {fileID: 0}
    - target: {fileID: 411683760532140849, guid: 1edbf07e7a013744580df96aa5a3d834, type: 3}
      propertyPath: m_LocalScale.y
      value: 0.2
      objectReference: {fileID: 0}
    - target: {fileID: 411683760532140849, guid: 1edbf07e7a013744580df96aa5a3d834, type: 3}
      propertyPath: m_LocalScale.z
      value: 0.2
      objectReference: {fileID: 0}
    - target: {fileID: 1080099330840390027, guid: 1edbf07e7a013744580df96aa5a3d834, type: 3}
      propertyPath: m_Name
      value: bigChair (3) Variant
      objectReference: {fileID: 0}
    - target: {fileID: 1584621579781752926, guid: 1edbf07e7a013744580df96aa5a3d834, type: 3}
      propertyPath: m_Materials.Array.data[0]
      value: 
      objectReference: {fileID: 2100000, guid: 7c17733298739ae489170b4e2e6b66b6, type: 2}
    m_RemovedComponents: []
  m_SourcePrefab: {fileID: 100100000, guid: 1edbf07e7a013744580df96aa5a3d834, type: 3}
--- !u!1 &4976272931373925893 stripped
GameObject:
  m_CorrespondingSourceObject: {fileID: 1080099330840390027, guid: 1edbf07e7a013744580df96aa5a3d834, type: 3}
  m_PrefabInstance: {fileID: 5472451082700435342}
  m_PrefabAsset: {fileID: 0}
