%YAML 1.1
%TAG !u! tag:unity3d.com,2011:
--- !u!1001 &2625318099448665650
PrefabInstance:
  m_ObjectHideFlags: 0
  serializedVersion: 2
  m_Modification:
    m_TransformParent: {fileID: 0}
    m_Modifications:
    - target: {fileID: -8679921383154817045, guid: af28e20fc36cf7147b40d527f037d241, type: 3}
      propertyPath: m_LocalPosition.x
      value: -61.496872
      objectReference: {fileID: 0}
    - target: {fileID: -8679921383154817045, guid: af28e20fc36cf7147b40d527f037d241, type: 3}
      propertyPath: m_LocalPosition.y
      value: 1.0470256
      objectReference: {fileID: 0}
    - target: {fileID: -8679921383154817045, guid: af28e20fc36cf7147b40d527f037d241, type: 3}
      propertyPath: m_LocalPosition.z
      value: -37.276615
      objectReference: {fileID: 0}
    - target: {fileID: -8679921383154817045, guid: af28e20fc36cf7147b40d527f037d241, type: 3}
      propertyPath: m_LocalRotation.x
      value: 0.000000014901161
      objectReference: {fileID: 0}
    - target: {fileID: -8679921383154817045, guid: af28e20fc36cf7147b40d527f037d241, type: 3}
      propertyPath: m_LocalRotation.y
      value: -0
      objectReference: {fileID: 0}
    - target: {fileID: -8679921383154817045, guid: af28e20fc36cf7147b40d527f037d241, type: 3}
      propertyPath: m_LocalRotation.z
      value: -0
      objectReference: {fileID: 0}
    - target: {fileID: -8679921383154817045, guid: af28e20fc36cf7147b40d527f037d241, type: 3}
      propertyPath: m_LocalRotation.w
      value: 1
      objectReference: {fileID: 0}
    - target: {fileID: -8679921383154817045, guid: af28e20fc36cf7147b40d527f037d241, type: 3}
      propertyPath: m_RootOrder
      value: 0
      objectReference: {fileID: 0}
    - target: {fileID: -8679921383154817045, guid: af28e20fc36cf7147b40d527f037d241, type: 3}
      propertyPath: m_LocalEulerAnglesHint.x
      value: 0
      objectReference: {fileID: 0}
    - target: {fileID: -8679921383154817045, guid: af28e20fc36cf7147b40d527f037d241, type: 3}
      propertyPath: m_LocalEulerAnglesHint.y
      value: 0
      objectReference: {fileID: 0}
    - target: {fileID: -8679921383154817045, guid: af28e20fc36cf7147b40d527f037d241, type: 3}
      propertyPath: m_LocalEulerAnglesHint.z
      value: 0
      objectReference: {fileID: 0}
    - target: {fileID: -7901965365810808197, guid: af28e20fc36cf7147b40d527f037d241, type: 3}
      propertyPath: m_Materials.Array.data[0]
      value: 
      objectReference: {fileID: 2100000, guid: 93fef753cfb16f047a8b158036a225a0, type: 2}
    - target: {fileID: -7849268929617644440, guid: af28e20fc36cf7147b40d527f037d241, type: 3}
      propertyPath: m_Materials.Array.data[0]
      value: 
      objectReference: {fileID: 2100000, guid: 93fef753cfb16f047a8b158036a225a0, type: 2}
    - target: {fileID: -7202464317774104332, guid: af28e20fc36cf7147b40d527f037d241, type: 3}
      propertyPath: m_Materials.Array.data[0]
      value: 
      objectReference: {fileID: 2100000, guid: 93fef753cfb16f047a8b158036a225a0, type: 2}
    - target: {fileID: -6652725513331149018, guid: af28e20fc36cf7147b40d527f037d241, type: 3}
      propertyPath: m_Materials.Array.data[0]
      value: 
      objectReference: {fileID: 2100000, guid: 93fef753cfb16f047a8b158036a225a0, type: 2}
    - target: {fileID: -3477821731311062464, guid: af28e20fc36cf7147b40d527f037d241, type: 3}
      propertyPath: m_Materials.Array.data[0]
      value: 
      objectReference: {fileID: 2100000, guid: 93fef753cfb16f047a8b158036a225a0, type: 2}
    - target: {fileID: -1872832634699468418, guid: af28e20fc36cf7147b40d527f037d241, type: 3}
      propertyPath: m_Materials.Array.data[0]
      value: 
      objectReference: {fileID: 2100000, guid: 93fef753cfb16f047a8b158036a225a0, type: 2}
    - target: {fileID: -1592289475483123607, guid: af28e20fc36cf7147b40d527f037d241, type: 3}
      propertyPath: m_Materials.Array.data[0]
      value: 
      objectReference: {fileID: 2100000, guid: 93fef753cfb16f047a8b158036a225a0, type: 2}
    - target: {fileID: 919132149155446097, guid: af28e20fc36cf7147b40d527f037d241, type: 3}
      propertyPath: m_Name
      value: Car
      objectReference: {fileID: 0}
    - target: {fileID: 1603246306389932429, guid: af28e20fc36cf7147b40d527f037d241, type: 3}
      propertyPath: m_Materials.Array.data[0]
      value: 
      objectReference: {fileID: 2100000, guid: 93fef753cfb16f047a8b158036a225a0, type: 2}
    - target: {fileID: 2524822750756377850, guid: af28e20fc36cf7147b40d527f037d241, type: 3}
      propertyPath: m_Materials.Array.data[0]
      value: 
      objectReference: {fileID: 2100000, guid: 93fef753cfb16f047a8b158036a225a0, type: 2}
    - target: {fileID: 3816654056258493912, guid: af28e20fc36cf7147b40d527f037d241, type: 3}
      propertyPath: m_Materials.Array.data[0]
      value: 
      objectReference: {fileID: 2100000, guid: 93fef753cfb16f047a8b158036a225a0, type: 2}
    - target: {fileID: 4407187375235809858, guid: af28e20fc36cf7147b40d527f037d241, type: 3}
      propertyPath: m_Materials.Array.data[0]
      value: 
      objectReference: {fileID: 2100000, guid: 93fef753cfb16f047a8b158036a225a0, type: 2}
    - target: {fileID: 4842034304032773444, guid: af28e20fc36cf7147b40d527f037d241, type: 3}
      propertyPath: m_Materials.Array.data[0]
      value: 
      objectReference: {fileID: 2100000, guid: 93fef753cfb16f047a8b158036a225a0, type: 2}
    - target: {fileID: 5500436077478298816, guid: af28e20fc36cf7147b40d527f037d241, type: 3}
      propertyPath: m_Materials.Array.data[0]
      value: 
      objectReference: {fileID: 2100000, guid: 93fef753cfb16f047a8b158036a225a0, type: 2}
    - target: {fileID: 8736054615233459941, guid: af28e20fc36cf7147b40d527f037d241, type: 3}
      propertyPath: m_Materials.Array.data[0]
      value: 
      objectReference: {fileID: 2100000, guid: 93fef753cfb16f047a8b158036a225a0, type: 2}
    m_RemovedComponents: []
  m_SourcePrefab: {fileID: 100100000, guid: af28e20fc36cf7147b40d527f037d241, type: 3}
