%YAML 1.1
%TAG !u! tag:unity3d.com,2011:
--- !u!1 &1707326394793046861
GameObject:
  m_ObjectHideFlags: 0
  m_CorrespondingSourceObject: {fileID: 0}
  m_PrefabInstance: {fileID: 0}
  m_PrefabAsset: {fileID: 0}
  serializedVersion: 6
  m_Component:
  - component: {fileID: 8074106081012376945}
  m_Layer: 0
  m_Name: table_army_stuff_ver2
  m_TagString: Untagged
  m_Icon: {fileID: 0}
  m_NavMeshLayer: 0
  m_StaticEditorFlags: 0
  m_IsActive: 1
--- !u!4 &8074106081012376945
Transform:
  m_ObjectHideFlags: 0
  m_CorrespondingSourceObject: {fileID: 0}
  m_PrefabInstance: {fileID: 0}
  m_PrefabAsset: {fileID: 0}
  m_GameObject: {fileID: 1707326394793046861}
  m_LocalRotation: {x: 0, y: 0, z: 0, w: 1}
  m_LocalPosition: {x: -1.1747613, y: 0.01674467, z: 0.139}
  m_LocalScale: {x: 0.8, y: 0.8, z: 0.8}
  m_Children:
  - {fileID: 2197060724151622392}
  m_Father: {fileID: 0}
  m_RootOrder: 0
  m_LocalEulerAnglesHint: {x: 0, y: 0, z: 0}
--- !u!1001 &8216985062812081262
PrefabInstance:
  m_ObjectHideFlags: 0
  serializedVersion: 2
  m_Modification:
    m_TransformParent: {fileID: 2197060724151622392}
    m_Modifications:
    - target: {fileID: 7060959162143685135, guid: 80e790e27491a3242825b99a5568b84f, type: 3}
      propertyPath: m_LocalPosition.x
      value: -0.38931274
      objectReference: {fileID: 0}
    - target: {fileID: 7060959162143685135, guid: 80e790e27491a3242825b99a5568b84f, type: 3}
      propertyPath: m_LocalPosition.y
      value: 0.422
      objectReference: {fileID: 0}
    - target: {fileID: 7060959162143685135, guid: 80e790e27491a3242825b99a5568b84f, type: 3}
      propertyPath: m_LocalPosition.z
      value: 0.10358006
      objectReference: {fileID: 0}
    - target: {fileID: 7060959162143685135, guid: 80e790e27491a3242825b99a5568b84f, type: 3}
      propertyPath: m_LocalRotation.x
      value: -0.00000008145183
      objectReference: {fileID: 0}
    - target: {fileID: 7060959162143685135, guid: 80e790e27491a3242825b99a5568b84f, type: 3}
      propertyPath: m_LocalRotation.y
      value: -0.014699206
      objectReference: {fileID: 0}
    - target: {fileID: 7060959162143685135, guid: 80e790e27491a3242825b99a5568b84f, type: 3}
      propertyPath: m_LocalRotation.z
      value: 0.0000000011974217
      objectReference: {fileID: 0}
    - target: {fileID: 7060959162143685135, guid: 80e790e27491a3242825b99a5568b84f, type: 3}
      propertyPath: m_LocalRotation.w
      value: -0.99989206
      objectReference: {fileID: 0}
    - target: {fileID: 7060959162143685135, guid: 80e790e27491a3242825b99a5568b84f, type: 3}
      propertyPath: m_RootOrder
      value: 0
      objectReference: {fileID: 0}
    - target: {fileID: 7060959162143685135, guid: 80e790e27491a3242825b99a5568b84f, type: 3}
      propertyPath: m_LocalEulerAnglesHint.x
      value: 0
      objectReference: {fileID: 0}
    - target: {fileID: 7060959162143685135, guid: 80e790e27491a3242825b99a5568b84f, type: 3}
      propertyPath: m_LocalEulerAnglesHint.y
      value: -358.316
      objectReference: {fileID: 0}
    - target: {fileID: 7060959162143685135, guid: 80e790e27491a3242825b99a5568b84f, type: 3}
      propertyPath: m_LocalEulerAnglesHint.z
      value: 0
      objectReference: {fileID: 0}
    - target: {fileID: 7060959162143685135, guid: 80e790e27491a3242825b99a5568b84f, type: 3}
      propertyPath: m_LocalScale.x
      value: 0.018
      objectReference: {fileID: 0}
    - target: {fileID: 7060959162143685135, guid: 80e790e27491a3242825b99a5568b84f, type: 3}
      propertyPath: m_LocalScale.y
      value: 0.018
      objectReference: {fileID: 0}
    - target: {fileID: 7060959162143685135, guid: 80e790e27491a3242825b99a5568b84f, type: 3}
      propertyPath: m_LocalScale.z
      value: 0.018
      objectReference: {fileID: 0}
    - target: {fileID: 7689404186582933685, guid: 80e790e27491a3242825b99a5568b84f, type: 3}
      propertyPath: m_Name
      value: tier3
      objectReference: {fileID: 0}
    m_RemovedComponents: []
  m_SourcePrefab: {fileID: 100100000, guid: 80e790e27491a3242825b99a5568b84f, type: 3}
--- !u!1001 &8216985063423767687
PrefabInstance:
  m_ObjectHideFlags: 0
  serializedVersion: 2
  m_Modification:
    m_TransformParent: {fileID: 8074106081012376945}
    m_Modifications:
    - target: {fileID: 7439612174531900613, guid: 810bdb3a7b3ad84458c0ffd06b96120d, type: 3}
      propertyPath: m_Name
      value: table
      objectReference: {fileID: 0}
    - target: {fileID: 7815187327471677055, guid: 810bdb3a7b3ad84458c0ffd06b96120d, type: 3}
      propertyPath: m_LocalPosition.x
      value: -0.010582387
      objectReference: {fileID: 0}
    - target: {fileID: 7815187327471677055, guid: 810bdb3a7b3ad84458c0ffd06b96120d, type: 3}
      propertyPath: m_LocalPosition.y
      value: 0.21725532
      objectReference: {fileID: 0}
    - target: {fileID: 7815187327471677055, guid: 810bdb3a7b3ad84458c0ffd06b96120d, type: 3}
      propertyPath: m_LocalPosition.z
      value: -0.07858595
      objectReference: {fileID: 0}
    - target: {fileID: 7815187327471677055, guid: 810bdb3a7b3ad84458c0ffd06b96120d, type: 3}
      propertyPath: m_LocalRotation.x
      value: -0
      objectReference: {fileID: 0}
    - target: {fileID: 7815187327471677055, guid: 810bdb3a7b3ad84458c0ffd06b96120d, type: 3}
      propertyPath: m_LocalRotation.y
      value: -0
      objectReference: {fileID: 0}
    - target: {fileID: 7815187327471677055, guid: 810bdb3a7b3ad84458c0ffd06b96120d, type: 3}
      propertyPath: m_LocalRotation.z
      value: -0
      objectReference: {fileID: 0}
    - target: {fileID: 7815187327471677055, guid: 810bdb3a7b3ad84458c0ffd06b96120d, type: 3}
      propertyPath: m_LocalRotation.w
      value: 1
      objectReference: {fileID: 0}
    - target: {fileID: 7815187327471677055, guid: 810bdb3a7b3ad84458c0ffd06b96120d, type: 3}
      propertyPath: m_RootOrder
      value: 0
      objectReference: {fileID: 0}
    - target: {fileID: 7815187327471677055, guid: 810bdb3a7b3ad84458c0ffd06b96120d, type: 3}
      propertyPath: m_LocalEulerAnglesHint.x
      value: 0
      objectReference: {fileID: 0}
    - target: {fileID: 7815187327471677055, guid: 810bdb3a7b3ad84458c0ffd06b96120d, type: 3}
      propertyPath: m_LocalEulerAnglesHint.y
      value: 0
      objectReference: {fileID: 0}
    - target: {fileID: 7815187327471677055, guid: 810bdb3a7b3ad84458c0ffd06b96120d, type: 3}
      propertyPath: m_LocalEulerAnglesHint.z
      value: 0
      objectReference: {fileID: 0}
    - target: {fileID: 7815187327471677055, guid: 810bdb3a7b3ad84458c0ffd06b96120d, type: 3}
      propertyPath: m_LocalScale.x
      value: 0.5
      objectReference: {fileID: 0}
    - target: {fileID: 7815187327471677055, guid: 810bdb3a7b3ad84458c0ffd06b96120d, type: 3}
      propertyPath: m_LocalScale.y
      value: 0.5
      objectReference: {fileID: 0}
    - target: {fileID: 7815187327471677055, guid: 810bdb3a7b3ad84458c0ffd06b96120d, type: 3}
      propertyPath: m_LocalScale.z
      value: 0.5
      objectReference: {fileID: 0}
    m_RemovedComponents: []
  m_SourcePrefab: {fileID: 100100000, guid: 810bdb3a7b3ad84458c0ffd06b96120d, type: 3}
--- !u!4 &2197060724151622392 stripped
Transform:
  m_CorrespondingSourceObject: {fileID: 7815187327471677055, guid: 810bdb3a7b3ad84458c0ffd06b96120d, type: 3}
  m_PrefabInstance: {fileID: 8216985063423767687}
  m_PrefabAsset: {fileID: 0}
--- !u!1001 &8216985063938108926
PrefabInstance:
  m_ObjectHideFlags: 0
  serializedVersion: 2
  m_Modification:
    m_TransformParent: {fileID: 2197060724151622392}
    m_Modifications:
    - target: {fileID: 2655817606433378672, guid: 3320afcd04b1e324a9ce3533eb3e462c, type: 3}
      propertyPath: m_LocalPosition.x
      value: 0.49174118
      objectReference: {fileID: 0}
    - target: {fileID: 2655817606433378672, guid: 3320afcd04b1e324a9ce3533eb3e462c, type: 3}
      propertyPath: m_LocalPosition.y
      value: 0.6174
      objectReference: {fileID: 0}
    - target: {fileID: 2655817606433378672, guid: 3320afcd04b1e324a9ce3533eb3e462c, type: 3}
      propertyPath: m_LocalPosition.z
      value: 0.29448014
      objectReference: {fileID: 0}
    - target: {fileID: 2655817606433378672, guid: 3320afcd04b1e324a9ce3533eb3e462c, type: 3}
      propertyPath: m_LocalRotation.x
      value: -0.0002998049
      objectReference: {fileID: 0}
    - target: {fileID: 2655817606433378672, guid: 3320afcd04b1e324a9ce3533eb3e462c, type: 3}
      propertyPath: m_LocalRotation.y
      value: 0.15400419
      objectReference: {fileID: 0}
    - target: {fileID: 2655817606433378672, guid: 3320afcd04b1e324a9ce3533eb3e462c, type: 3}
      propertyPath: m_LocalRotation.z
      value: -0.009808465
      objectReference: {fileID: 0}
    - target: {fileID: 2655817606433378672, guid: 3320afcd04b1e324a9ce3533eb3e462c, type: 3}
      propertyPath: m_LocalRotation.w
      value: 0.9880215
      objectReference: {fileID: 0}
    - target: {fileID: 2655817606433378672, guid: 3320afcd04b1e324a9ce3533eb3e462c, type: 3}
      propertyPath: m_RootOrder
      value: 2
      objectReference: {fileID: 0}
    - target: {fileID: 2655817606433378672, guid: 3320afcd04b1e324a9ce3533eb3e462c, type: 3}
      propertyPath: m_LocalEulerAnglesHint.x
      value: 0.139
      objectReference: {fileID: 0}
    - target: {fileID: 2655817606433378672, guid: 3320afcd04b1e324a9ce3533eb3e462c, type: 3}
      propertyPath: m_LocalEulerAnglesHint.y
      value: 17.718
      objectReference: {fileID: 0}
    - target: {fileID: 2655817606433378672, guid: 3320afcd04b1e324a9ce3533eb3e462c, type: 3}
      propertyPath: m_LocalEulerAnglesHint.z
      value: -1.116
      objectReference: {fileID: 0}
    - target: {fileID: 2655817606433378672, guid: 3320afcd04b1e324a9ce3533eb3e462c, type: 3}
      propertyPath: m_LocalScale.x
      value: 0.10000001
      objectReference: {fileID: 0}
    - target: {fileID: 2655817606433378672, guid: 3320afcd04b1e324a9ce3533eb3e462c, type: 3}
      propertyPath: m_LocalScale.y
      value: 0.1
      objectReference: {fileID: 0}
    - target: {fileID: 2655817606433378672, guid: 3320afcd04b1e324a9ce3533eb3e462c, type: 3}
      propertyPath: m_LocalScale.z
      value: 0.10000001
      objectReference: {fileID: 0}
    - target: {fileID: 3427393961575107530, guid: 3320afcd04b1e324a9ce3533eb3e462c, type: 3}
      propertyPath: m_Name
      value: GasMask
      objectReference: {fileID: 0}
    m_RemovedComponents: []
  m_SourcePrefab: {fileID: 100100000, guid: 3320afcd04b1e324a9ce3533eb3e462c, type: 3}
--- !u!1001 &8216985064197183131
PrefabInstance:
  m_ObjectHideFlags: 0
  serializedVersion: 2
  m_Modification:
    m_TransformParent: {fileID: 2197060724151622392}
    m_Modifications:
    - target: {fileID: 7139631750675457370, guid: a7b9be78c34b64648b5a4c16074e816d, type: 3}
      propertyPath: m_Name
      value: armor2_low
      objectReference: {fileID: 0}
    - target: {fileID: 7520661266682888160, guid: a7b9be78c34b64648b5a4c16074e816d, type: 3}
      propertyPath: m_LocalPosition.x
      value: -2.5389066
      objectReference: {fileID: 0}
    - target: {fileID: 7520661266682888160, guid: a7b9be78c34b64648b5a4c16074e816d, type: 3}
      propertyPath: m_LocalPosition.y
      value: 0.54600006
      objectReference: {fileID: 0}
    - target: {fileID: 7520661266682888160, guid: a7b9be78c34b64648b5a4c16074e816d, type: 3}
      propertyPath: m_LocalPosition.z
      value: -1.102011
      objectReference: {fileID: 0}
    - target: {fileID: 7520661266682888160, guid: a7b9be78c34b64648b5a4c16074e816d, type: 3}
      propertyPath: m_LocalRotation.x
      value: -0
      objectReference: {fileID: 0}
    - target: {fileID: 7520661266682888160, guid: a7b9be78c34b64648b5a4c16074e816d, type: 3}
      propertyPath: m_LocalRotation.y
      value: -0.12983698
      objectReference: {fileID: 0}
    - target: {fileID: 7520661266682888160, guid: a7b9be78c34b64648b5a4c16074e816d, type: 3}
      propertyPath: m_LocalRotation.z
      value: -0
      objectReference: {fileID: 0}
    - target: {fileID: 7520661266682888160, guid: a7b9be78c34b64648b5a4c16074e816d, type: 3}
      propertyPath: m_LocalRotation.w
      value: 0.99153537
      objectReference: {fileID: 0}
    - target: {fileID: 7520661266682888160, guid: a7b9be78c34b64648b5a4c16074e816d, type: 3}
      propertyPath: m_RootOrder
      value: 1
      objectReference: {fileID: 0}
    - target: {fileID: 7520661266682888160, guid: a7b9be78c34b64648b5a4c16074e816d, type: 3}
      propertyPath: m_LocalEulerAnglesHint.x
      value: 0
      objectReference: {fileID: 0}
    - target: {fileID: 7520661266682888160, guid: a7b9be78c34b64648b5a4c16074e816d, type: 3}
      propertyPath: m_LocalEulerAnglesHint.y
      value: -14.92
      objectReference: {fileID: 0}
    - target: {fileID: 7520661266682888160, guid: a7b9be78c34b64648b5a4c16074e816d, type: 3}
      propertyPath: m_LocalEulerAnglesHint.z
      value: 0
      objectReference: {fileID: 0}
    - target: {fileID: 7520661266682888160, guid: a7b9be78c34b64648b5a4c16074e816d, type: 3}
      propertyPath: m_LocalScale.x
      value: 0.40000007
      objectReference: {fileID: 0}
    - target: {fileID: 7520661266682888160, guid: a7b9be78c34b64648b5a4c16074e816d, type: 3}
      propertyPath: m_LocalScale.y
      value: 0.4
      objectReference: {fileID: 0}
    - target: {fileID: 7520661266682888160, guid: a7b9be78c34b64648b5a4c16074e816d, type: 3}
      propertyPath: m_LocalScale.z
      value: 0.40000007
      objectReference: {fileID: 0}
    m_RemovedComponents: []
  m_SourcePrefab: {fileID: 100100000, guid: a7b9be78c34b64648b5a4c16074e816d, type: 3}
