%YAML 1.1
%TAG !u! tag:unity3d.com,2011:
--- !u!1001 &3316920895766514455
PrefabInstance:
  m_ObjectHideFlags: 0
  serializedVersion: 2
  m_Modification:
    m_TransformParent: {fileID: 0}
    m_Modifications:
    - target: {fileID: 7076233423045699139, guid: f96ee692cde64f3429f744dc8082a3c3, type: 3}
      propertyPath: m_LocalPosition.x
      value: 7.854
      objectReference: {fileID: 0}
    - target: {fileID: 7076233423045699139, guid: f96ee692cde64f3429f744dc8082a3c3, type: 3}
      propertyPath: m_LocalPosition.y
      value: -0.482
      objectReference: {fileID: 0}
    - target: {fileID: 7076233423045699139, guid: f96ee692cde64f3429f744dc8082a3c3, type: 3}
      propertyPath: m_LocalPosition.z
      value: 3.547
      objectReference: {fileID: 0}
    - target: {fileID: 7076233423045699139, guid: f96ee692cde64f3429f744dc8082a3c3, type: 3}
      propertyPath: m_LocalRotation.x
      value: 0.0042431033
      objectReference: {fileID: 0}
    - target: {fileID: 7076233423045699139, guid: f96ee692cde64f3429f744dc8082a3c3, type: 3}
      propertyPath: m_LocalRotation.y
      value: -0.99617666
      objectReference: {fileID: 0}
    - target: {fileID: 7076233423045699139, guid: f96ee692cde64f3429f744dc8082a3c3, type: 3}
      propertyPath: m_LocalRotation.z
      value: 0.079883195
      objectReference: {fileID: 0}
    - target: {fileID: 7076233423045699139, guid: f96ee692cde64f3429f744dc8082a3c3, type: 3}
      propertyPath: m_LocalRotation.w
      value: -0.035110302
      objectReference: {fileID: 0}
    - target: {fileID: 7076233423045699139, guid: f96ee692cde64f3429f744dc8082a3c3, type: 3}
      propertyPath: m_RootOrder
      value: 0
      objectReference: {fileID: 0}
    - target: {fileID: 7076233423045699139, guid: f96ee692cde64f3429f744dc8082a3c3, type: 3}
      propertyPath: m_LocalEulerAnglesHint.x
      value: 0
      objectReference: {fileID: 0}
    - target: {fileID: 7076233423045699139, guid: f96ee692cde64f3429f744dc8082a3c3, type: 3}
      propertyPath: m_LocalEulerAnglesHint.y
      value: 0
      objectReference: {fileID: 0}
    - target: {fileID: 7076233423045699139, guid: f96ee692cde64f3429f744dc8082a3c3, type: 3}
      propertyPath: m_LocalEulerAnglesHint.z
      value: 0
      objectReference: {fileID: 0}
    - target: {fileID: 7076233423045699139, guid: f96ee692cde64f3429f744dc8082a3c3, type: 3}
      propertyPath: m_LocalScale.x
      value: 0.3391053
      objectReference: {fileID: 0}
    - target: {fileID: 7076233423045699139, guid: f96ee692cde64f3429f744dc8082a3c3, type: 3}
      propertyPath: m_LocalScale.y
      value: 0.3391053
      objectReference: {fileID: 0}
    - target: {fileID: 7076233423045699139, guid: f96ee692cde64f3429f744dc8082a3c3, type: 3}
      propertyPath: m_LocalScale.z
      value: 0.33910534
      objectReference: {fileID: 0}
    - target: {fileID: 7599829190456835321, guid: f96ee692cde64f3429f744dc8082a3c3, type: 3}
      propertyPath: m_Name
      value: mug_4 Variant
      objectReference: {fileID: 0}
    - target: {fileID: 8248615474334358828, guid: f96ee692cde64f3429f744dc8082a3c3, type: 3}
      propertyPath: m_Materials.Array.data[0]
      value: 
      objectReference: {fileID: 2100000, guid: ed3fcfb120a2e4a4ca8f89bc8826e260, type: 2}
    m_RemovedComponents: []
  m_SourcePrefab: {fileID: 100100000, guid: f96ee692cde64f3429f744dc8082a3c3, type: 3}
