%YAML 1.1
%TAG !u! tag:unity3d.com,2011:
--- !u!1001 &1363619613878530744
PrefabInstance:
  m_ObjectHideFlags: 0
  serializedVersion: 2
  m_Modification:
    m_TransformParent: {fileID: 0}
    m_Modifications:
    - target: {fileID: 2604958256346809399, guid: 9f8408d4603fa254aa0d6bbc6a675b96, type: 3}
      propertyPath: m_Materials.Array.data[0]
      value: 
      objectReference: {fileID: 2100000, guid: f2869a6404b475e4a9420f731e017e2b, type: 2}
    - target: {fileID: 3777824539562098520, guid: 9f8408d4603fa254aa0d6bbc6a675b96, type: 3}
      propertyPath: m_LocalPosition.x
      value: -23.334
      objectReference: {fileID: 0}
    - target: {fileID: 3777824539562098520, guid: 9f8408d4603fa254aa0d6bbc6a675b96, type: 3}
      propertyPath: m_LocalPosition.y
      value: 0.4503
      objectReference: {fileID: 0}
    - target: {fileID: 3777824539562098520, guid: 9f8408d4603fa254aa0d6bbc6a675b96, type: 3}
      propertyPath: m_LocalPosition.z
      value: -6.328
      objectReference: {fileID: 0}
    - target: {fileID: 3777824539562098520, guid: 9f8408d4603fa254aa0d6bbc6a675b96, type: 3}
      propertyPath: m_LocalRotation.x
      value: 0.00000008146034
      objectReference: {fileID: 0}
    - target: {fileID: 3777824539562098520, guid: 9f8408d4603fa254aa0d6bbc6a675b96, type: 3}
      propertyPath: m_LocalRotation.y
      value: -0
      objectReference: {fileID: 0}
    - target: {fileID: 3777824539562098520, guid: 9f8408d4603fa254aa0d6bbc6a675b96, type: 3}
      propertyPath: m_LocalRotation.z
      value: -0
      objectReference: {fileID: 0}
    - target: {fileID: 3777824539562098520, guid: 9f8408d4603fa254aa0d6bbc6a675b96, type: 3}
      propertyPath: m_LocalRotation.w
      value: 1
      objectReference: {fileID: 0}
    - target: {fileID: 3777824539562098520, guid: 9f8408d4603fa254aa0d6bbc6a675b96, type: 3}
      propertyPath: m_RootOrder
      value: 0
      objectReference: {fileID: 0}
    - target: {fileID: 3777824539562098520, guid: 9f8408d4603fa254aa0d6bbc6a675b96, type: 3}
      propertyPath: m_LocalEulerAnglesHint.x
      value: 0
      objectReference: {fileID: 0}
    - target: {fileID: 3777824539562098520, guid: 9f8408d4603fa254aa0d6bbc6a675b96, type: 3}
      propertyPath: m_LocalEulerAnglesHint.y
      value: 0
      objectReference: {fileID: 0}
    - target: {fileID: 3777824539562098520, guid: 9f8408d4603fa254aa0d6bbc6a675b96, type: 3}
      propertyPath: m_LocalEulerAnglesHint.z
      value: 0
      objectReference: {fileID: 0}
    - target: {fileID: 3777824539562098520, guid: 9f8408d4603fa254aa0d6bbc6a675b96, type: 3}
      propertyPath: m_LocalScale.x
      value: 0.1395518
      objectReference: {fileID: 0}
    - target: {fileID: 3777824539562098520, guid: 9f8408d4603fa254aa0d6bbc6a675b96, type: 3}
      propertyPath: m_LocalScale.y
      value: 0.1395518
      objectReference: {fileID: 0}
    - target: {fileID: 3777824539562098520, guid: 9f8408d4603fa254aa0d6bbc6a675b96, type: 3}
      propertyPath: m_LocalScale.z
      value: 0.1395518
      objectReference: {fileID: 0}
    - target: {fileID: 4550421005896148450, guid: 9f8408d4603fa254aa0d6bbc6a675b96, type: 3}
      propertyPath: m_Name
      value: mug_2 Variant
      objectReference: {fileID: 0}
    m_RemovedComponents: []
  m_SourcePrefab: {fileID: 100100000, guid: 9f8408d4603fa254aa0d6bbc6a675b96, type: 3}
